Lab+Final_Project/Lab2/simulation/qsim/Lab2.msim.vcd
$comment
	File created using the following command:
		vcd file Lab2.msim.vcd -direction
$end
$date
	Wed Sep 23 08:16:38 2020
$end
$version
	ModelSim Version 10.5b
$end
$timescale
	1ps
$end

$scope module Lab2_vlg_vec_tst $end
$var reg 1 ! CLOCK $end
$var reg 1 " CompareA2 $end
$var reg 1 # CompareA3 $end
$var reg 1 $ CompareB2 $end
$var reg 1 % CompareB3 $end
$var reg 1 & DIN0 $end
$var reg 1 ' DIN1 $end
$var reg 1 ( FETCH $end
$var reg 1 ) LDSBR $end
$var reg 1 * SAR0 $end
$var reg 1 + SAR1 $end
$var reg 1 , ShiftState0 $end
$var reg 1 - ShiftState1 $end
$var reg 1 . STORE $end
$var wire 1 / A $end
$var wire 1 0 B $end
$var wire 1 1 Counter0 $end
$var wire 1 2 Counter1 $end
$var wire 1 3 Q00 $end
$var wire 1 4 Q01 $end
$var wire 1 5 Q02 $end
$var wire 1 6 Q03 $end
$var wire 1 7 Q10 $end
$var wire 1 8 Q11 $end
$var wire 1 9 Q12 $end
$var wire 1 : Q13 $end
$var wire 1 ; SBR0 $end
$var wire 1 < SBR1 $end
$var wire 1 = SelectA $end
$var wire 1 > Y1 $end
$var wire 1 ? Y2 $end

$scope module i1 $end
$var wire 1 @ gnd $end
$var wire 1 A vcc $end
$var wire 1 B unknown $end
$var tri1 1 C devclrn $end
$var tri1 1 D devpor $end
$var tri1 1 E devoe $end
$var wire 1 F Q00~output_o $end
$var wire 1 G Q01~output_o $end
$var wire 1 H Q02~output_o $end
$var wire 1 I Q03~output_o $end
$var wire 1 J Q10~output_o $end
$var wire 1 K Q11~output_o $end
$var wire 1 L Q12~output_o $end
$var wire 1 M Q13~output_o $end
$var wire 1 N SBR1~output_o $end
$var wire 1 O SBR0~output_o $end
$var wire 1 P B~output_o $end
$var wire 1 Q A~output_o $end
$var wire 1 R Y1~output_o $end
$var wire 1 S Y2~output_o $end
$var wire 1 T SelectA~output_o $end
$var wire 1 U Counter1~output_o $end
$var wire 1 V Counter0~output_o $end
$var wire 1 W CLOCK~input_o $end
$var wire 1 X CLOCK~inputclkctrl_outclk $end
$var wire 1 Y ShiftState0~input_o $end
$var wire 1 Z ShiftState1~input_o $end
$var wire 1 [ inst|40~0_combout $end
$var wire 1 \ inst|36~0_combout $end
$var wire 1 ] inst|40~q $end
$var wire 1 ^ inst|39~0_combout $end
$var wire 1 _ inst|35~0_combout $end
$var wire 1 ` inst|39~q $end
$var wire 1 a inst|34~0_combout $end
$var wire 1 b inst|38~q $end
$var wire 1 c LDSBR~input_o $end
$var wire 1 d CompareA3~input_o $end
$var wire 1 e CompareB3~input_o $end
$var wire 1 f CompareA2~input_o $end
$var wire 1 g CompareB2~input_o $end
$var wire 1 h inst5|inst2|6~0_combout $end
$var wire 1 i inst5|inst7|6~1_combout $end
$var wire 1 j SAR0~input_o $end
$var wire 1 k SAR1~input_o $end
$var wire 1 l FETCH~input_o $end
$var wire 1 m STORE~input_o $end
$var wire 1 n inst3|26~0_combout $end
$var wire 1 o inst3|26~q $end
$var wire 1 p inst5|inst7|6~0_combout $end
$var wire 1 q inst3|5~combout $end
$var wire 1 r inst3|25~0_combout $end
$var wire 1 s inst3|25~q $end
$var wire 1 t inst5|inst7|6~2_combout $end
$var wire 1 u inst5|inst4|5~0_combout $end
$var wire 1 v DIN0~input_o $end
$var wire 1 w inst6|9~0_combout $end
$var wire 1 x inst6|9~1_combout $end
$var wire 1 y inst4|9~feeder_combout $end
$var wire 1 z inst4|9~q $end
$var wire 1 { inst5|inst2|6~2_combout $end
$var wire 1 | inst5|inst2|6~1_combout $end
$var wire 1 } inst5|inst2|6~3_combout $end
$var wire 1 ~ inst9|22~0_combout $end
$var wire 1 !! inst|41~0_combout $end
$var wire 1 "! inst|37~0_combout $end
$var wire 1 #! inst|41~q $end
$var wire 1 $! inst1|40~0_combout $end
$var wire 1 %! inst1|36~0_combout $end
$var wire 1 &! inst1|40~q $end
$var wire 1 '! inst1|39~0_combout $end
$var wire 1 (! inst1|35~0_combout $end
$var wire 1 )! inst1|39~q $end
$var wire 1 *! inst1|34~0_combout $end
$var wire 1 +! inst1|38~q $end
$var wire 1 ,! DIN1~input_o $end
$var wire 1 -! inst6|10~0_combout $end
$var wire 1 .! inst6|10~1_combout $end
$var wire 1 /! inst4|10~feeder_combout $end
$var wire 1 0! inst4|10~q $end
$var wire 1 1! inst9|23~0_combout $end
$var wire 1 2! inst1|41~0_combout $end
$var wire 1 3! inst1|37~0_combout $end
$var wire 1 4! inst1|41~q $end
$upscope $end
$upscope $end
$enddefinitions $end
#0
$dumpvars
1!
0"
0#
0$
0%
0&
1'
0(
1)
0*
0+
1,
0-
0.
1/
00
01
02
03
04
05
06
07
08
09
0:
0;
0<
1=
0>
1?
0@
1A
xB
1C
1D
1E
0F
0G
0H
0I
0J
0K
0L
0M
0N
0O
0P
1Q
0R
1S
1T
0U
0V
1W
1X
1Y
0Z
0[
0\
0]
0^
0_
0`
0a
0b
1c
0d
0e
0f
0g
1h
0i
0j
0k
0l
0m
1n
0o
0p
1q
1r
0s
0t
1u
0v
0w
0x
0y
0z
0{
1|
0}
0~
0!!
0"!
0#!
0$!
0%!
0&!
0'!
0(!
0)!
0*!
0+!
1,!
1-!
1.!
1/!
00!
01!
02!
03!
04!
$end
#5000
0!
0W
0X
#10000
1!
1W
1X
1o
10!
1N
1U
0|
12
1<
0n
#15000
0!
0W
0X
0q
#20000
1!
1W
1X
1q
1s
0o
0U
1V
11
02
0r
1n
#25000
0!
0W
0X
#30000
0)
1!
0c
1W
1X
1i
0u
0Q
0/
1o
1U
12
0n
#35000
0!
0W
0X
0q
#40000
0'
1)
1!
0,!
1c
1W
1X
0i
1u
1q
1Q
0-!
1/
0.!
0S
0?
0/!
0s
0o
0U
0V
1|
01
02
1r
1n
#45000
0!
0W
0X
#50000
1!
1W
1X
1o
00!
0N
1U
0|
12
0<
0n
#55000
0!
0W
0X
0q
#60000
1!
1W
1X
1q
1s
0o
0U
1V
11
02
0r
1n
#65000
0!
0W
0X
#70000
0)
1!
0c
1W
1X
1i
0u
0Q
0/
1o
1U
12
0n
#75000
0!
0W
0X
0q
#80000
1&
1)
1!
1v
1c
1W
1X
0i
1u
1q
1Q
1w
1/
1x
1R
1>
1y
0s
0o
0U
0V
1|
01
02
1r
1n
#85000
0!
0W
0X
#90000
1!
1W
1X
1o
1z
1O
1U
0|
12
1;
0n
#95000
0!
0W
0X
0q
#100000
1!
1W
1X
1q
1s
0o
0U
1V
11
02
0r
1n
#105000
0!
0W
0X
#110000
0)
1!
0c
1W
1X
1i
0u
0Q
0/
1o
1U
12
0n
#115000
0!
0W
0X
0q
#120000
1'
1)
1!
1,!
1c
1W
1X
0i
1u
1q
1Q
1-!
1/
1.!
1S
1?
1/!
0s
0o
0U
0V
1|
01
02
1r
1n
#125000
0!
0W
0X
#130000
1!
1W
1X
1o
10!
1N
1U
0|
12
1<
0n
#135000
0!
0W
0X
0q
#140000
1!
1W
1X
1q
1s
0o
0U
1V
11
02
0r
1n
#145000
0!
0W
0X
#150000
0)
1!
0c
1W
1X
1i
0u
0Q
0/
1o
1U
12
0n
#155000
0!
0W
0X
0q
#160000
0&
0'
1!
0v
0,!
1W
1X
1q
0s
0o
0U
0V
1|
01
02
1r
1n
#165000
0!
0W
0X
#170000
1!
1W
1X
1o
1U
0|
12
0n
#175000
0!
0W
0X
0q
#180000
1!
1W
1X
1q
1s
0o
0U
1V
11
02
0r
1n
#185000
0!
0W
0X
#190000
1*
1+
1!
1j
1k
1W
1X
1o
1U
1|
12
0n
#195000
0!
0W
0X
0q
#200000
1.
1!
1m
1W
1X
1{
1q
1}
0T
11!
1~
0=
12!
1!!
0s
0o
0U
0V
0|
01
02
1r
1n
0}
1T
01!
0~
1=
02!
0!!
#205000
0!
0W
0X
#210000
1!
1W
1X
1o
1U
12
0n
#215000
0!
0W
0X
0q
#220000
1!
1W
1X
1q
1s
0o
0U
1V
11
02
0r
1n
#225000
0!
0W
0X
#230000
1!
1W
1X
1o
1U
1|
12
0n
1}
0T
11!
1~
0=
12!
1!!
#235000
0!
0W
0X
0q
#240000
0.
1!
0m
1W
1X
0{
1q
0}
1T
01!
0~
1=
02!
0!!
0s
0o
14!
1#!
1F
1J
0U
0V
0|
01
02
17
13
1r
1n
1$!
1[
#245000
0!
0W
0X
#250000
1)
1&
1!
1c
1v
1W
1X
0i
1u
1Q
0-!
1/
0.!
0S
0?
0/!
1o
04!
1&!
0#!
1]
1G
0F
1K
0J
1U
12
07
18
03
14
0n
0$!
1'!
0[
1^
#255000
0!
0W
0X
0q
#260000
1!
1W
1X
1q
1s
0o
00!
1)!
0&!
1`
0]
0G
1H
0K
1L
0N
0U
1V
11
02
0<
19
08
15
04
0r
1n
1*!
0'!
1a
0^
#265000
0!
0W
0X
#270000
1!
1W
1X
1o
1+!
0)!
1b
0`
0H
1I
0L
1M
1U
1|
11!
1~
12
1:
09
16
05
0n
0*!
0a
12!
1!!
#275000
0!
0W
0X
0q
#280000
0+
0)
1!
0k
0c
1W
1X
0|
1i
0u
1q
0Q
0/
0s
0o
14!
0+!
1#!
0b
0I
1F
0M
1J
0U
0V
01!
0~
01
02
17
0:
13
06
1r
1n
1$!
1[
02!
0!!
#285000
0!
0W
0X
#290000
1.
0&
1!
1m
0v
1W
1X
1{
1o
04!
1&!
0#!
1]
1G
0F
1K
0J
1U
12
07
18
03
14
0n
0$!
1'!
0[
1^
#295000
0!
0W
0X
0q
#300000
1!
1W
1X
1q
1s
0o
1)!
0&!
1`
0]
0G
1H
0K
1L
0U
1V
1|
11
02
19
08
15
04
0r
1n
1*!
0'!
1a
0^
1}
0T
1~
0=
1!!
#305000
0!
0W
0X
#310000
1!
1W
1X
1o
1+!
0)!
1#!
1b
0`
0H
1I
1F
0L
1M
1U
0|
12
1:
09
13
16
05
0n
0*!
1[
0a
0}
1T
11!
1=
12!
#315000
0!
0W
0X
0q
#320000
1!
1W
1X
1q
0s
0o
14!
0+!
0b
1]
1G
0I
0M
1J
0U
0V
01!
0~
01
02
17
0:
06
14
1r
1n
1$!
1^
02!
0!!
#325000
0!
0W
0X
#330000
0.
1!
0m
1W
1X
0{
1o
04!
1&!
0#!
1`
1H
0F
1K
0J
1U
12
07
18
03
15
0n
0$!
1'!
0[
1a
#335000
0!
0W
0X
0q
#340000
1)
1!
1c
1W
1X
0i
1u
1q
1Q
0w
1/
0x
0R
0>
0y
1s
0o
1)!
0&!
1b
0]
0G
1I
0K
1L
0U
1V
1|
1~
11
02
19
08
16
04
0r
1n
1*!
0'!
0^
1!!
#345000
0!
0W
0X
#350000
1!
1W
1X
1o
1+!
0)!
1#!
0z
0`
0H
0O
1F
0L
1M
1U
0|
11!
12
1:
09
13
0;
05
0n
0*!
1[
0a
12!
#355000
0!
0W
0X
0q
#360000
1!
1W
1X
1q
0s
0o
14!
0+!
0b
1]
1G
0I
0M
1J
0U
0V
01!
0~
01
02
17
0:
06
14
1r
1n
1$!
1^
02!
0!!
#365000
0!
0W
0X
#370000
0*
0)
1!
0j
0c
1W
1X
1|
1i
0u
0Q
0/
1o
04!
1&!
0#!
1`
1H
0F
1K
0J
1U
0|
12
07
18
03
15
0n
0$!
1'!
0[
1a
#375000
0!
0W
0X
0q
#380000
1.
1!
1m
1W
1X
1{
1q
1s
0o
1)!
0&!
1b
0]
0G
1I
0K
1L
0U
1V
1~
11
02
19
08
16
04
0r
1n
1*!
0'!
0^
1!!
#385000
0!
0W
0X
#390000
1!
1W
1X
1o
1+!
0)!
1#!
0`
0H
1F
0L
1M
1U
11!
12
1:
09
13
05
0n
0*!
1[
0a
12!
#395000
0!
0W
0X
0q
#400000
1!
1W
1X
1q
0s
0o
14!
0+!
0b
1]
1G
0I
0M
1J
0U
0V
1|
01!
0~
01
02
17
0:
06
14
1r
1n
1$!
1^
1}
02!
0!!
0T
0=
#405000
0!
0W
0X
#410000
1!
1W
1X
1o
04!
1&!
0#!
1`
1H
0F
1K
0J
1U
0|
12
07
18
03
15
0n
0$!
1'!
0[
1a
0}
1T
1=
#415000
0!
0W
0X
0q
#420000
0.
1!
0m
1W
1X
0{
1q
1s
0o
1)!
0&!
1b
0]
0G
1I
0K
1L
0U
1V
1~
11
02
19
08
16
04
0r
1n
1*!
0'!
0^
1!!
#425000
0!
0W
0X
#430000
1'
1)
1!
1,!
1c
1W
1X
0i
1u
1Q
1-!
1/
1.!
1S
1?
1/!
1o
1+!
0)!
1#!
0`
0H
1F
0L
1M
1U
11!
12
1:
09
13
05
0n
0*!
1[
0a
12!
#435000
0!
0W
0X
0q
#440000
1!
1W
1X
1q
0s
0o
14!
10!
0+!
0b
1]
1G
0I
0M
1N
1J
0U
0V
1|
01!
0~
01
02
17
1<
0:
06
14
1r
1n
1$!
1^
02!
0!!
#445000
0!
0W
0X
#450000
1!
1W
1X
1o
04!
1&!
0#!
1`
1H
0F
1K
0J
1U
0|
12
07
18
03
15
0n
0$!
1'!
0[
1a
#455000
0!
0W
0X
0q
#460000
1+
0)
1!
1k
0c
1W
1X
1|
1i
0u
1q
0Q
0/
1s
0o
1)!
0&!
1b
0]
0G
1I
0K
1L
0U
1V
0|
1~
11
02
19
08
16
04
0r
1n
1*!
0'!
0^
1!!
#465000
0!
0W
0X
#470000
1.
0'
1!
1m
0,!
1W
1X
1{
1o
1+!
0)!
1#!
0`
0H
1F
0L
1M
1U
11!
12
1:
09
13
05
0n
0*!
1[
0a
12!
#475000
0!
0W
0X
0q
#480000
1!
1W
1X
1q
0s
0o
14!
0+!
0b
1]
1G
0I
0M
1J
0U
0V
01!
0~
01
02
17
0:
06
14
1r
1n
1$!
1^
02!
0!!
#485000
0!
0W
0X
#490000
1!
1W
1X
1o
04!
1&!
0#!
1`
1H
0F
1K
0J
1U
1|
12
07
18
03
15
0n
0$!
1'!
0[
1a
1}
0T
11!
0=
12!
#495000
0!
0W
0X
0q
#500000
1!
1W
1X
1q
1s
0o
14!
1)!
0&!
1b
0]
0G
1I
0K
1L
1J
0U
1V
0|
11
02
17
19
08
16
04
0r
1n
1$!
1*!
0'!
0^
0}
1T
01!
1~
1=
02!
1!!
#505000
0!
0W
0X
#510000
0.
1!
0m
1W
1X
0{
1o
04!
1+!
0)!
1&!
1#!
0`
0H
1F
1K
0L
1M
0J
1U
11!
12
07
1:
09
18
13
05
0n
0$!
0*!
1'!
1[
0a
12!
#515000
0!
0W
0X
0q
#520000
1!
1W
1X
1q
0s
0o
14!
0+!
1)!
0&!
0b
1]
1G
0I
0K
1L
0M
1J
0U
0V
01!
0~
01
02
17
0:
19
08
06
14
1r
1n
1$!
1*!
0'!
1^
02!
0!!
#525000
0!
0W
0X
#530000
1!
1W
1X
1o
04!
1+!
0)!
1&!
0#!
1`
1H
0F
1K
0L
1M
0J
1U
1|
11!
12
07
1:
09
18
03
15
0n
0$!
0*!
1'!
0[
1a
12!
#535000
0!
0W
0X
0q
#540000
1!
1W
1X
1q
1s
0o
14!
0+!
1)!
0&!
1b
0]
0G
1I
0K
1L
0M
1J
0U
1V
0|
01!
1~
11
02
17
0:
19
08
16
04
0r
1n
1$!
1*!
0'!
0^
02!
1!!
#545000
0!
0W
0X
#550000
0+
1!
0k
1W
1X
1o
04!
1+!
0)!
1&!
1#!
0`
0H
1F
1K
0L
1M
0J
1U
11!
12
07
1:
09
18
13
05
0n
0$!
0*!
1'!
1[
0a
12!
#555000
0!
0W
0X
0q
#560000
1!
1W
1X
1q
0s
0o
14!
0+!
1)!
0&!
0b
1]
1G
0I
0K
1L
0M
1J
0U
0V
1|
01!
0~
01
02
17
0:
19
08
06
14
1r
1n
1$!
1*!
0'!
1^
02!
0!!
#565000
0!
0W
0X
#570000
1!
1W
1X
1o
04!
1+!
0)!
1&!
0#!
1`
1H
0F
1K
0L
1M
0J
1U
0|
11!
12
07
1:
09
18
03
15
0n
0$!
0*!
1'!
0[
1a
12!
#575000
0!
0W
0X
0q
#580000
1!
1W
1X
1q
1s
0o
14!
0+!
1)!
0&!
1b
0]
0G
1I
0K
1L
0M
1J
0U
1V
01!
1~
11
02
17
0:
19
08
16
04
0r
1n
1$!
1*!
0'!
0^
02!
1!!
#585000
0!
0W
0X
#590000
1!
1W
1X
1o
04!
1+!
0)!
1&!
1#!
0`
0H
1F
1K
0L
1M
0J
1U
11!
12
07
1:
09
18
13
05
0n
0$!
0*!
1'!
1[
0a
12!
#595000
0!
0W
0X
0q
#600000
1!
1W
1X
1q
0s
0o
14!
0+!
1)!
0&!
0b
1]
1G
0I
0K
1L
0M
1J
0U
0V
1|
01!
0~
01
02
17
0:
19
08
06
14
1r
1n
1$!
1*!
0'!
1^
02!
0!!
#605000
0!
0W
0X
#610000
1!
1W
1X
1o
04!
1+!
0)!
1&!
0#!
1`
1H
0F
1K
0L
1M
0J
1U
0|
11!
12
07
1:
09
18
03
15
0n
0$!
0*!
1'!
0[
1a
12!
#615000
0!
0W
0X
0q
#620000
1!
1W
1X
1q
1s
0o
14!
0+!
1)!
0&!
1b
0]
0G
1I
0K
1L
0M
1J
0U
1V
01!
1~
11
02
17
0:
19
08
16
04
0r
1n
1$!
1*!
0'!
0^
02!
1!!
#625000
0!
0W
0X
#630000
1*
1+
1!
1j
1k
1W
1X
1o
04!
1+!
0)!
1&!
1#!
0`
0H
1F
1K
0L
1M
0J
1U
1|
11!
12
07
1:
09
18
13
05
0n
0$!
0*!
1'!
1[
0a
12!
#635000
0!
0W
0X
0q
#640000
1(
1!
1l
1W
1X
1p
1q
1t
1P
10
1x
1R
1>
1y
0s
0o
14!
0+!
1)!
0&!
0b
1]
1G
0I
0K
1L
0M
1J
0U
0V
0|
0p
01!
0~
01
02
17
0:
19
08
06
14
0t
1r
1n
1$!
0.!
1*!
0'!
0x
1^
0R
0S
0P
00
0?
0>
02!
0!!
1.!
0/!
0y
1S
1?
1/!
#645000
0!
0W
0X
#650000
1!
1W
1X
1o
04!
1+!
0)!
1&!
0#!
1`
1H
0F
1K
0L
1M
0J
1U
1p
11!
12
07
1:
09
18
03
15
0n
0$!
0*!
1'!
0[
1a
12!
#655000
0!
0W
0X
0q
#660000
1!
1W
1X
1q
1s
0o
14!
0+!
1)!
0&!
1b
0]
0G
1I
0K
1L
0M
1J
0U
1V
0p
01!
1~
11
02
17
0:
19
08
16
04
1t
0r
1n
1$!
1*!
0'!
0^
1P
10
0t
02!
1!!
0.!
1x
1R
0S
0P
00
0?
1>
1.!
0x
0/!
1y
0R
1S
1?
0>
1/!
0y
#665000
0!
0W
0X
#670000
1!
1W
1X
1o
04!
1+!
0)!
1&!
1#!
0`
0H
1F
1K
0L
1M
0J
1U
1|
1p
11!
12
07
1:
09
18
13
05
0n
0$!
0*!
1'!
1[
0a
1t
12!
1P
10
1x
1R
1>
1y
#675000
0!
0W
0X
0q
#680000
0+
0(
1!
0k
0l
1W
1X
0|
0p
1q
0t
0P
00
0x
0R
0>
0y
0s
0o
14!
0+!
1)!
0&!
1z
0b
1]
1G
0I
1O
0K
1L
0M
1J
0U
0V
01!
0~
1w
01
02
17
0:
19
08
1;
06
14
1r
1n
1$!
1*!
0'!
1^
02!
0!!
1x
1R
1>
1y
#685000
0!
0W
0X
#690000
1(
1!
1l
1W
1X
1p
1o
04!
1+!
0)!
1&!
0#!
1`
1H
0F
1K
0L
1M
0J
1U
0p
11!
12
07
1:
09
18
03
15
0n
0$!
0*!
1'!
0[
1a
12!
#695000
0!
0W
0X
0q
#700000
1!
1W
1X
1q
1s
0o
14!
0+!
1)!
0&!
1b
0]
0G
1I
0K
1L
0M
1J
0U
1V
1|
1p
01!
1~
11
02
17
0:
19
08
16
04
0r
1n
1$!
1*!
0'!
0^
1t
02!
1!!
1P
0w
10
0.!
0S
0?
0/!
#705000
0!
0W
0X
#710000
1!
1W
1X
1o
04!
00!
1+!
0)!
1&!
1#!
0`
0H
1F
1K
0L
1M
0N
0J
1U
0|
0p
11!
0-!
12
07
0<
1:
09
18
13
05
0n
0$!
1.!
0*!
1'!
1[
0a
1S
1?
0t
12!
1/!
0P
1w
00
0.!
0x
0R
0S
0?
0>
1x
0/!
0y
1R
1>
1y
#715000
0!
0W
0X
0q
#720000
1!
1W
1X
1q
0s
0o
14!
0+!
1)!
0&!
0b
1]
1G
0I
0K
1L
0M
1J
0U
0V
1p
01!
0~
01
02
17
0:
19
08
06
14
1r
1n
1$!
1*!
0'!
1^
02!
0!!
#725000
0!
0W
0X
#730000
0*
0(
1!
0j
0l
1W
1X
1|
0p
1t
1P
0w
10
0t
0P
1w
00
0x
0R
0>
1x
0y
1R
1>
1y
1o
04!
1+!
0)!
1&!
0#!
1`
1H
0F
1K
0L
1M
0J
1U
0|
11!
12
07
1:
09
18
03
15
0n
0$!
0*!
1'!
0[
1a
12!
#735000
0!
0W
0X
0q
#740000
1(
1!
1l
1W
1X
1q
1s
0o
14!
0+!
1)!
0&!
1b
0]
0G
1I
0K
1L
0M
1J
0U
1V
1p
01!
1~
11
02
17
0:
19
08
16
04
0r
1n
1$!
1*!
0'!
0^
02!
1!!
#745000
0!
0W
0X
#750000
1!
1W
1X
1o
04!
1+!
0)!
1&!
1#!
0`
0H
1F
1K
0L
1M
0J
1U
0p
11!
12
07
1:
09
18
13
05
0n
0$!
0*!
1'!
1[
0a
12!
#755000
0!
0W
0X
0q
#760000
1!
1W
1X
1q
0s
0o
14!
0+!
1)!
0&!
0b
1]
1G
0I
0K
1L
0M
1J
0U
0V
1|
1p
01!
0~
01
02
17
0:
19
08
06
14
1r
1n
1$!
1*!
0'!
1^
1t
02!
0!!
1P
0w
10
0x
0R
0>
0y
#765000
0!
0W
0X
#770000
1!
1W
1X
1o
04!
1+!
0)!
1&!
0#!
0z
1`
1H
0O
0F
1K
0L
1M
0J
1U
0|
0p
11!
12
07
1:
09
18
03
0;
15
0n
0$!
1.!
0*!
1'!
0[
1a
1S
1?
0t
12!
1/!
0P
00
0.!
0S
0?
0/!
#775000
0!
0W
0X
0q
#780000
1+
0(
1!
1k
0l
1W
1X
1|
1q
1s
0o
14!
0+!
1)!
0&!
1b
0]
0G
1I
0K
1L
0M
1J
0U
1V
0|
01!
1~
11
02
17
0:
19
08
16
04
0r
1n
1$!
1*!
0'!
0^
02!
1!!
#785000
0!
0W
0X
#790000
1(
1!
1l
1W
1X
1o
04!
1+!
0)!
1&!
1#!
0`
0H
1F
1K
0L
1M
0J
1U
1p
11!
12
07
1:
09
18
13
05
0n
0$!
0*!
1'!
1[
0a
12!
#795000
0!
0W
0X
0q
#800000
1!
1W
1X
1q
0s
0o
14!
0+!
1)!
0&!
0b
1]
1G
0I
0K
1L
0M
1J
0U
0V
0p
01!
0~
01
02
17
0:
19
08
06
14
1t
1r
1n
1$!
1*!
0'!
1^
1P
10
0t
02!
0!!
0P
00
#805000
0!
0W
0X
#810000
1!
1W
1X
1o
04!
1+!
0)!
1&!
0#!
1`
1H
0F
1K
0L
1M
0J
1U
1|
1p
11!
12
07
1:
09
18
03
15
0n
0$!
0*!
1'!
0[
1a
1t
12!
1P
10
1.!
1S
1?
1/!
#815000
0!
0W
0X
0q
#820000
1!
1W
1X
1q
1s
0o
14!
10!
0+!
1)!
0&!
1b
0]
0G
1I
0K
1L
0M
1N
1J
0U
1V
0|
0p
01!
1-!
1~
11
02
17
1<
0:
19
08
16
04
0t
0r
1n
1$!
0.!
1*!
0'!
1x
0^
1R
0S
0P
00
0?
1>
02!
1.!
1!!
0x
0/!
1y
0R
1S
1?
0>
1/!
0y
#825000
0!
0W
0X
#830000
0+
0(
1!
0k
0l
1W
1X
1o
04!
1+!
0)!
1&!
1#!
0`
0H
1F
1K
0L
1M
0J
1U
11!
12
07
1:
09
18
13
05
0n
0$!
0*!
1'!
1[
0a
12!
#835000
0!
0W
0X
0q
#840000
1!
1W
1X
1q
0s
0o
14!
0+!
1)!
0&!
0b
1]
1G
0I
0K
1L
0M
1J
0U
0V
1|
01!
0~
01
02
17
0:
19
08
06
14
1r
1n
1$!
1*!
0'!
1^
02!
0!!
#845000
0!
0W
0X
#850000
1!
1W
1X
1o
04!
1+!
0)!
1&!
0#!
1`
1H
0F
1K
0L
1M
0J
1U
0|
11!
12
07
1:
09
18
03
15
0n
0$!
0*!
1'!
0[
1a
12!
#855000
0!
0W
0X
0q
#860000
1!
1W
1X
1q
1s
0o
14!
0+!
1)!
0&!
1b
0]
0G
1I
0K
1L
0M
1J
0U
1V
01!
1~
11
02
17
0:
19
08
16
04
0r
1n
1$!
1*!
0'!
0^
02!
1!!
#865000
0!
0W
0X
#870000
1!
1W
1X
1o
04!
1+!
0)!
1&!
1#!
0`
0H
1F
1K
0L
1M
0J
1U
11!
12
07
1:
09
18
13
05
0n
0$!
0*!
1'!
1[
0a
12!
#875000
0!
0W
0X
0q
#880000
1!
1W
1X
1q
0s
0o
14!
0+!
1)!
0&!
0b
1]
1G
0I
0K
1L
0M
1J
0U
0V
1|
01!
0~
01
02
17
0:
19
08
06
14
1r
1n
1$!
1*!
0'!
1^
02!
0!!
#885000
0!
0W
0X
#890000
1!
1W
1X
1o
04!
1+!
0)!
1&!
0#!
1`
1H
0F
1K
0L
1M
0J
1U
0|
11!
12
07
1:
09
18
03
15
0n
0$!
0*!
1'!
0[
1a
12!
#895000
0!
0W
0X
0q
#900000
1!
1W
1X
1q
1s
0o
14!
0+!
1)!
0&!
1b
0]
0G
1I
0K
1L
0M
1J
0U
1V
01!
1~
11
02
17
0:
19
08
16
04
0r
1n
1$!
1*!
0'!
0^
02!
1!!
#905000
0!
0W
0X
#910000
1!
1W
1X
1o
04!
1+!
0)!
1&!
1#!
0`
0H
1F
1K
0L
1M
0J
1U
11!
12
07
1:
09
18
13
05
0n
0$!
0*!
1'!
1[
0a
12!
#915000
0!
0W
0X
0q
#920000
1!
1W
1X
1q
0s
0o
14!
0+!
1)!
0&!
0b
1]
1G
0I
0K
1L
0M
1J
0U
0V
1|
01!
0~
01
02
17
0:
19
08
06
14
1r
1n
1$!
1*!
0'!
1^
02!
0!!
#925000
0!
0W
0X
#930000
1!
1W
1X
1o
04!
1+!
0)!
1&!
0#!
1`
1H
0F
1K
0L
1M
0J
1U
0|
11!
12
07
1:
09
18
03
15
0n
0$!
0*!
1'!
0[
1a
12!
#935000
0!
0W
0X
0q
#940000
1!
1W
1X
1q
1s
0o
14!
0+!
1)!
0&!
1b
0]
0G
1I
0K
1L
0M
1J
0U
1V
01!
1~
11
02
17
0:
19
08
16
04
0r
1n
1$!
1*!
0'!
0^
02!
1!!
#945000
0!
0W
0X
#950000
1!
1W
1X
1o
04!
1+!
0)!
1&!
1#!
0`
0H
1F
1K
0L
1M
0J
1U
11!
12
07
1:
09
18
13
05
0n
0$!
0*!
1'!
1[
0a
12!
#955000
0!
0W
0X
0q
#960000
1!
1W
1X
1q
0s
0o
14!
0+!
1)!
0&!
0b
1]
1G
0I
0K
1L
0M
1J
0U
0V
1|
01!
0~
01
02
17
0:
19
08
06
14
1r
1n
1$!
1*!
0'!
1^
02!
0!!
#965000
0!
0W
0X
#970000
1!
1W
1X
1o
04!
1+!
0)!
1&!
0#!
1`
1H
0F
1K
0L
1M
0J
1U
0|
11!
12
07
1:
09
18
03
15
0n
0$!
0*!
1'!
0[
1a
12!
#975000
0!
0W
0X
0q
#980000
1!
1W
1X
1q
1s
0o
14!
0+!
1)!
0&!
1b
0]
0G
1I
0K
1L
0M
1J
0U
1V
01!
1~
11
02
17
0:
19
08
16
04
0r
1n
1$!
1*!
0'!
0^
02!
1!!
#985000
0!
0W
0X
#990000
1!
1W
1X
1o
04!
1+!
0)!
1&!
1#!
0`
0H
1F
1K
0L
1M
0J
1U
11!
12
07
1:
09
18
13
05
0n
0$!
0*!
1'!
1[
0a
12!
#995000
0!
0W
0X
0q
