Lab+Final_Project/Lab3/simulation/qsim/Lab3.msim.vcd
$comment
	File created using the following command:
		vcd file Lab3.msim.vcd -direction
$end
$date
	Wed Sep 30 08:11:45 2020
$end
$version
	ModelSim Version 10.5b
$end
$timescale
	1ps
$end

$scope module lab3_vlg_vec_tst $end
$var reg 1 ! Clear $end
$var reg 1 " CLK $end
$var reg 1 # D0 $end
$var reg 1 $ D1 $end
$var reg 1 % D2 $end
$var reg 1 & D3 $end
$var reg 1 ' EXECUTE $end
$var reg 1 ( F0 $end
$var reg 1 ) F1 $end
$var reg 1 * F2 $end
$var reg 1 + LOAD_A $end
$var reg 1 , LOAD_B $end
$var reg 1 - R0 $end
$var reg 1 . R1 $end
$var wire 1 / RA0 $end
$var wire 1 0 RA1 $end
$var wire 1 1 RA2 $end
$var wire 1 2 RA3 $end
$var wire 1 3 RB0 $end
$var wire 1 4 RB1 $end
$var wire 1 5 RB2 $end
$var wire 1 6 RB3 $end

$scope module i1 $end
$var wire 1 7 gnd $end
$var wire 1 8 vcc $end
$var wire 1 9 unknown $end
$var tri1 1 : devclrn $end
$var tri1 1 ; devpor $end
$var tri1 1 < devoe $end
$var wire 1 = RA0~output_o $end
$var wire 1 > RA1~output_o $end
$var wire 1 ? RA2~output_o $end
$var wire 1 @ RA3~output_o $end
$var wire 1 A RB0~output_o $end
$var wire 1 B RB1~output_o $end
$var wire 1 C RB2~output_o $end
$var wire 1 D RB3~output_o $end
$var wire 1 E CLK~input_o $end
$var wire 1 F CLK~inputclkctrl_outclk $end
$var wire 1 G R1~input_o $end
$var wire 1 H LOAD_A~input_o $end
$var wire 1 I D3~input_o $end
$var wire 1 J inst3|inst|38~0_combout $end
$var wire 1 K D2~input_o $end
$var wire 1 L inst3|inst|39~0_combout $end
$var wire 1 M D1~input_o $end
$var wire 1 N inst3|inst|40~0_combout $end
$var wire 1 O EXECUTE~input_o $end
$var wire 1 P inst2|inst10|5~combout $end
$var wire 1 Q Clear~input_o $end
$var wire 1 R Clear~inputclkctrl_outclk $end
$var wire 1 S inst2|inst2|10~q $end
$var wire 1 T inst2|inst14|4~combout $end
$var wire 1 U inst2|inst|10~q $end
$var wire 1 V inst2|inst|9~0_combout $end
$var wire 1 W inst2|inst|9~q $end
$var wire 1 X inst2|inst6|5~0_combout $end
$var wire 1 Y inst2|inst2|9~q $end
$var wire 1 Z inst3|inst|40~q $end
$var wire 1 [ inst3|inst|39~q $end
$var wire 1 \ inst3|inst|38~q $end
$var wire 1 ] R0~input_o $end
$var wire 1 ^ D0~input_o $end
$var wire 1 _ inst3|inst1|37~1_combout $end
$var wire 1 ` F2~input_o $end
$var wire 1 a F1~input_o $end
$var wire 1 b F0~input_o $end
$var wire 1 c inst|inst|9~0_combout $end
$var wire 1 d inst3|inst1|37~0_combout $end
$var wire 1 e inst3|inst1|37~2_combout $end
$var wire 1 f LOAD_B~input_o $end
$var wire 1 g inst3|inst1|34~0_combout $end
$var wire 1 h inst3|inst1|41~q $end
$var wire 1 i inst3|inst1|36~0_combout $end
$var wire 1 j inst3|inst1|40~q $end
$var wire 1 k inst3|inst1|35~0_combout $end
$var wire 1 l inst3|inst1|39~q $end
$var wire 1 m inst3|inst1|34~1_combout $end
$var wire 1 n inst3|inst1|38~q $end
$var wire 1 o inst3|inst|37~0_combout $end
$var wire 1 p inst3|inst|41~0_combout $end
$var wire 1 q inst3|inst|37~1_combout $end
$var wire 1 r inst3|inst|41~q $end
$upscope $end
$upscope $end
$enddefinitions $end
#0
$dumpvars
0!
0"
0#
0$
0%
0&
0'
0(
0)
0*
0+
0,
0-
0.
0/
00
01
02
03
04
05
06
07
18
x9
1:
1;
1<
0=
0>
0?
0@
0A
0B
0C
0D
0E
0F
0G
0H
0I
0J
0K
0L
0M
0N
0O
0P
0Q
0R
0S
0T
0U
0V
0W
0X
0Y
0Z
0[
0\
0]
0^
0_
0`
0a
0b
0c
0d
0e
0f
0g
0h
0i
0j
0k
0l
0m
0n
0o
0p
0q
0r
$end
#5000
1"
1E
1F
#10000
1$
1#
0"
1M
1^
0E
0F
1i
1e
#15000
1"
1E
1F
#20000
1!
0"
1Q
0E
1R
0F
#25000
1"
1E
1F
#30000
1+
0"
1H
0E
0F
1q
1N
#35000
1"
1E
1F
1r
1Z
1>
1=
1/
10
#40000
0"
0E
0F
#45000
1"
1E
1F
#50000
0$
0#
0+
0"
0M
0^
0H
0E
0F
0i
0e
#55000
1"
1E
1F
#60000
0"
0E
0F
#65000
1"
1E
1F
#70000
1&
1%
0"
1I
1K
0E
0F
1m
1k
#75000
1"
1E
1F
#80000
0"
0E
0F
#85000
1"
1E
1F
#90000
1+
0"
1H
0E
0F
0q
0N
1L
1J
#95000
1"
1E
1F
0r
1\
1[
0Z
0>
1?
1@
0=
0/
12
11
00
1p
#100000
0"
0E
0F
#105000
1"
1E
1F
#110000
0&
0%
0+
0"
0I
0K
0H
0E
0F
0m
0k
#115000
1"
1E
1F
#120000
0"
0E
0F
#125000
1"
1E
1F
#130000
0"
0E
0F
#135000
1"
1E
1F
#140000
0"
0E
0F
#145000
1"
1E
1F
#150000
1+
0"
1H
0E
0F
0L
0J
#155000
1"
1E
1F
0\
0[
0?
0@
02
01
0p
#160000
0"
0E
0F
#165000
1"
1E
1F
#170000
0+
0"
0H
0E
0F
#175000
1"
1E
1F
#180000
0"
0E
0F
#185000
1"
1E
1F
#190000
1$
1#
0"
1M
1^
0E
0F
1i
1e
#195000
1"
1E
1F
#200000
0"
0E
0F
#205000
1"
1E
1F
#210000
1,
0"
1f
0E
0F
1g
#215000
1"
1E
1F
1j
1h
1A
1B
14
13
#220000
0"
0E
0F
#225000
1"
1E
1F
#230000
0$
0#
0,
0"
0M
0^
0f
0E
0F
0g
0i
0e
#235000
1"
1E
1F
#240000
0"
0E
0F
#245000
1"
1E
1F
#250000
1&
1%
0"
1I
1K
0E
0F
1m
1k
#255000
1"
1E
1F
#260000
0"
0E
0F
#265000
1"
1E
1F
#270000
1,
0"
1f
0E
0F
1g
#275000
1"
1E
1F
1n
1l
0j
0h
0A
0B
1C
1D
1_
16
15
04
03
#280000
0"
0E
0F
#285000
1"
1E
1F
#290000
0&
0%
0,
0"
0I
0K
0f
0E
0F
0g
0m
0k
#295000
1"
1E
1F
#300000
0"
0E
0F
#305000
1"
1E
1F
#310000
0"
0E
0F
#315000
1"
1E
1F
#320000
0"
0E
0F
#325000
1"
1E
1F
#330000
1,
0"
1f
0E
0F
1g
#335000
1"
1E
1F
0n
0l
0C
0D
0_
06
05
#340000
0"
0E
0F
#345000
1"
1E
1F
#350000
0,
0"
0f
0E
0F
0g
#355000
1"
1E
1F
#360000
0"
0E
0F
#365000
1"
1E
1F
#370000
0"
0E
0F
#375000
1"
1E
1F
#380000
0"
0E
0F
#385000
1"
1E
1F
#390000
0"
0E
0F
#395000
1"
1E
1F
#400000
1$
1&
1%
0"
1M
1I
1K
0E
0F
1i
1m
1k
#405000
1"
1E
1F
#410000
0"
0E
0F
#415000
1"
1E
1F
#420000
1+
0"
1H
0E
0F
1N
1L
1J
#425000
1"
1E
1F
1\
1[
1Z
1>
1?
1@
12
11
10
1p
#430000
0"
0E
0F
#435000
1"
1E
1F
#440000
1#
0&
0+
0"
1^
0I
0H
0E
0F
1e
0m
#445000
1"
1E
1F
#450000
0"
0E
0F
#455000
1"
1E
1F
#460000
1,
0"
1f
0E
0F
1g
#465000
1"
1E
1F
1l
1j
1h
1A
1B
1C
15
14
13
#470000
0"
0E
0F
#475000
1"
1E
1F
#480000
0$
0%
0#
0,
0"
0M
0K
0^
0f
0E
0F
0g
0i
0k
0e
#485000
1"
1E
1F
#490000
0"
0E
0F
#495000
1"
1E
1F
#500000
1'
0"
1O
0E
0F
1X
1T
1P
#505000
1"
1E
1F
1Y
1U
1S
1g
1m
1k
1i
1V
0T
#510000
0"
0E
0F
#515000
1"
1E
1F
1W
0U
1r
1n
0h
0Z
0>
0A
1D
1=
1q
1c
1_
1/
16
03
00
1T
0i
0N
1o
1e
#520000
0"
0E
0F
#525000
1"
1E
1F
1U
0j
1h
0[
1Z
1>
0?
1A
0B
04
13
01
10
0V
0T
0k
1i
0L
1N
#530000
0"
0E
0F
#535000
1"
1E
1F
0W
0U
0l
1j
0\
1[
1?
0@
1B
0C
0c
05
14
02
11
0X
0m
1k
0p
0J
1L
0o
#540000
0"
0E
0F
#545000
1"
1E
1F
0Y
0r
0n
1l
1\
1@
1C
0D
0=
0g
0q
0_
0/
06
15
12
0k
0i
0e
1p
1J
#550000
0"
0E
0F
#555000
1"
1E
1F
#560000
0"
0E
0F
#565000
1"
1E
1F
#570000
0"
0E
0F
#575000
1"
1E
1F
#580000
0"
0E
0F
#585000
1"
1E
1F
#590000
0"
0E
0F
#595000
1"
1E
1F
#600000
1-
1&
1$
1%
0'
0"
1]
1I
1M
1K
0O
0E
0F
1m
1i
1k
0P
#605000
1"
1E
1F
0S
#610000
0"
0E
0F
#615000
1"
1E
1F
#620000
1+
0"
1H
0E
0F
#625000
1"
1E
1F
#630000
0"
0E
0F
#635000
1"
1E
1F
#640000
1#
0&
0+
0"
1^
0I
0H
0E
0F
1e
0m
#645000
1"
1E
1F
#650000
0"
0E
0F
#655000
1"
1E
1F
#660000
1,
0"
1f
0E
0F
1g
#665000
1"
1E
1F
#670000
0"
0E
0F
#675000
1"
1E
1F
#680000
0$
0%
0#
0,
0"
0M
0K
0^
0f
0E
0F
0g
0i
0k
0e
#685000
1"
1E
1F
#690000
0"
0E
0F
#695000
1"
1E
1F
#700000
1'
0"
1O
0E
0F
1X
1T
1P
#705000
1"
1E
1F
1Y
1U
1S
1g
1m
1k
1i
1V
0T
#710000
0"
0E
0F
#715000
1"
1E
1F
1W
0U
1r
1n
0h
0Z
0>
0A
1D
1=
1q
1o
1c
1/
16
03
00
1T
0i
0N
1d
1e
#720000
0"
0E
0F
#725000
1"
1E
1F
1U
0j
1h
0[
1Z
1>
0?
1A
0B
04
13
01
10
0V
0T
0k
1i
0L
1N
#730000
0"
0E
0F
#735000
1"
1E
1F
0W
0U
0l
1j
0\
1[
1?
0@
1B
0C
0c
05
14
02
11
0X
0m
1k
0p
0J
1L
0d
0e
#740000
0"
0E
0F
#745000
1"
1E
1F
0Y
0r
0n
1l
0h
1\
1@
0A
1C
0D
0=
0g
0q
0o
0/
06
15
03
12
0k
0i
1p
1J
#750000
0"
0E
0F
#755000
1"
1E
1F
#760000
0"
0E
0F
#765000
1"
1E
1F
#770000
0"
0E
0F
#775000
1"
1E
1F
#780000
0"
0E
0F
#785000
1"
1E
1F
#790000
0"
0E
0F
#795000
1"
1E
1F
#800000
1.
0-
1&
1$
1%
0'
0"
1G
0]
1I
1M
1K
0O
0E
0F
0p
1m
1i
1k
0P
#805000
1"
1E
1F
0S
#810000
0"
0E
0F
#815000
1"
1E
1F
#820000
1+
0"
1H
0E
0F
#825000
1"
1E
1F
#830000
0"
0E
0F
#835000
1"
1E
1F
#840000
1#
0&
0+
0"
1^
0I
0H
0E
0F
1e
0m
#845000
1"
1E
1F
#850000
0"
0E
0F
#855000
1"
1E
1F
#860000
1,
0"
1f
0E
0F
1g
#865000
1"
1E
1F
1h
1A
13
#870000
0"
0E
0F
#875000
1"
1E
1F
#880000
0$
0%
0#
0,
0"
0M
0K
0^
0f
0E
0F
0g
0i
0k
0e
#885000
1"
1E
1F
#890000
0"
0E
0F
#895000
1"
1E
1F
#900000
1'
0"
1O
0E
0F
1X
1T
1P
#905000
1"
1E
1F
1Y
1U
1S
1g
1m
1k
1i
1V
0T
#910000
0"
0E
0F
#915000
1"
1E
1F
1W
0U
1n
0h
0Z
0>
0A
1D
1c
1_
16
03
00
1T
0i
0N
1o
1e
1p
#920000
0"
0E
0F
#925000
1"
1E
1F
1U
1r
0j
1h
0[
0?
1A
0B
1=
1q
1/
04
13
01
0V
0T
0k
1i
0L
#930000
0"
0E
0F
#935000
1"
1E
1F
0W
0U
0l
1j
0\
1Z
1>
0@
1B
0C
0c
05
14
02
10
0X
0m
1k
0J
1N
0o
0p
#940000
0"
0E
0F
#945000
1"
1E
1F
0Y
0r
0n
1l
1[
1?
1C
0D
0=
0g
0q
0_
0/
06
15
11
0k
0i
0e
1L
#950000
0"
0E
0F
#955000
1"
1E
1F
#960000
0"
0E
0F
#965000
1"
1E
1F
#970000
0"
0E
0F
#975000
1"
1E
1F
#980000
0"
0E
0F
#985000
1"
1E
1F
#990000
0"
0E
0F
#995000
1"
1E
1F
#1000000
1-
1&
1$
1%
0'
0"
1]
1I
1M
1K
0O
0E
0F
1m
1i
1k
0P
#1005000
1"
1E
1F
0S
#1010000
0"
0E
0F
#1015000
1"
1E
1F
#1020000
1+
0"
1H
0E
0F
1J
#1025000
1"
1E
1F
1\
1@
1_
12
#1030000
0"
0E
0F
#1035000
1"
1E
1F
#1040000
1#
0&
0+
0"
1^
0I
0H
0E
0F
1e
0m
#1045000
1"
1E
1F
#1050000
0"
0E
0F
#1055000
1"
1E
1F
#1060000
1,
0"
1f
0E
0F
1g
#1065000
1"
1E
1F
#1070000
0"
0E
0F
#1075000
1"
1E
1F
#1080000
0$
0%
0#
0,
0"
0M
0K
0^
0f
0E
0F
0g
0i
0k
0e
#1085000
1"
1E
1F
#1090000
0"
0E
0F
#1095000
1"
1E
1F
#1100000
1'
0"
1O
0E
0F
1X
1T
1P
#1105000
1"
1E
1F
1Y
1U
1S
1g
1m
1k
1i
1e
1V
0T
#1110000
0"
0E
0F
#1115000
1"
1E
1F
1W
0U
1n
0Z
0>
1D
1o
1c
16
00
1T
0N
1p
#1120000
0"
0E
0F
#1125000
1"
1E
1F
1U
1r
0[
0?
1=
1q
1/
01
0V
0T
0L
#1130000
0"
0E
0F
#1135000
1"
1E
1F
0W
0U
0\
1Z
1>
0@
0c
0_
02
10
0X
0J
1N
0e
#1140000
0"
0E
0F
#1145000
1"
1E
1F
0Y
0h
1[
1?
0A
0g
03
11
0m
0k
0i
1L
#1150000
0"
0E
0F
#1155000
1"
1E
1F
#1160000
0"
0E
0F
#1165000
1"
1E
1F
#1170000
0"
0E
0F
#1175000
1"
1E
1F
#1180000
0"
0E
0F
#1185000
1"
1E
1F
#1190000
0"
0E
0F
#1195000
1"
1E
1F
#1200000
1(
0-
1&
1$
0'
0"
1b
0]
1I
1M
0O
0E
0F
1c
0o
1_
1m
1i
0P
1o
0p
1p
#1205000
1"
1E
1F
0S
#1210000
0"
0E
0F
#1215000
1"
1E
1F
#1220000
1+
0"
1H
0E
0F
0q
0L
1J
#1225000
1"
1E
1F
0r
1\
0[
0?
1@
0=
0/
12
01
#1230000
0"
0E
0F
#1235000
1"
1E
1F
#1240000
1%
1#
0&
0+
0"
1K
1^
0I
0H
0E
0F
1k
1e
0m
#1245000
1"
1E
1F
#1250000
0"
0E
0F
#1255000
1"
1E
1F
#1260000
1,
0"
1f
0E
0F
1g
#1265000
1"
1E
1F
0n
1h
1A
0D
0_
06
13
#1270000
0"
0E
0F
#1275000
1"
1E
1F
#1280000
0$
0%
0#
0,
0"
0M
0K
0^
0f
0E
0F
0g
0i
0k
0e
#1285000
1"
1E
1F
#1290000
0"
0E
0F
#1295000
1"
1E
1F
#1300000
1'
0"
1O
0E
0F
1X
1T
1P
#1305000
1"
1E
1F
1Y
1U
1S
1g
1m
1k
1i
1V
0T
#1310000
0"
0E
0F
#1315000
1"
1E
1F
1W
0U
1r
1n
0h
0\
1[
0Z
0>
1?
0@
0A
1D
1=
1q
1_
1/
16
03
02
11
00
1T
0i
0J
1L
0N
1e
#1320000
0"
0E
0F
#1325000
1"
1E
1F
1U
0j
1h
1\
0[
1Z
1>
0?
1@
1A
0B
04
13
12
01
10
0V
0T
0k
1i
1J
0L
1N
#1330000
0"
0E
0F
#1335000
1"
1E
1F
0W
0U
0l
1j
0\
1[
1?
0@
1B
0C
05
14
02
11
0X
0m
1k
0J
1L
#1340000
0"
0E
0F
#1345000
1"
1E
1F
0Y
0n
1l
1\
1@
1C
0D
0g
0_
06
15
12
0k
0i
0e
1J
#1350000
0"
0E
0F
#1355000
1"
1E
1F
#1360000
0"
0E
0F
#1365000
1"
1E
1F
#1370000
0"
0E
0F
#1375000
1"
1E
1F
#1380000
0"
0E
0F
#1385000
1"
1E
1F
#1390000
0"
0E
0F
#1395000
1"
1E
1F
#1400000
1)
0(
1&
1$
0'
0"
1a
0b
1I
1M
0O
0E
0F
1m
1i
0P
#1405000
1"
1E
1F
0S
#1410000
0"
0E
0F
#1415000
1"
1E
1F
#1420000
1+
0"
1H
0E
0F
0q
0L
#1425000
1"
1E
1F
0r
0[
0?
0=
0/
01
#1430000
0"
0E
0F
#1435000
1"
1E
1F
#1440000
1%
1#
0&
0+
0"
1K
1^
0I
0H
0E
0F
1k
1e
0m
#1445000
1"
1E
1F
#1450000
0"
0E
0F
#1455000
1"
1E
1F
#1460000
1,
0"
1f
0E
0F
1g
#1465000
1"
1E
1F
#1470000
0"
0E
0F
#1475000
1"
1E
1F
#1480000
0$
0%
0#
0,
0"
0M
0K
0^
0f
0E
0F
0g
0i
0k
0e
#1485000
1"
1E
1F
#1490000
0"
0E
0F
#1495000
1"
1E
1F
#1500000
1'
0"
1O
0E
0F
1X
1T
1P
#1505000
1"
1E
1F
1Y
1U
1S
1g
1m
1k
1i
1V
0T
#1510000
0"
0E
0F
#1515000
1"
1E
1F
1W
0U
1r
1n
0h
0\
1[
0Z
0>
1?
0@
0A
1D
1=
1q
1_
1/
16
03
02
11
00
1T
0i
0J
1L
0N
1e
#1520000
0"
0E
0F
#1525000
1"
1E
1F
1U
0j
1h
1\
0[
1Z
1>
0?
1@
1A
0B
0c
04
13
12
01
10
0V
0T
0k
1i
1J
0L
1N
0o
0p
#1530000
0"
0E
0F
#1535000
1"
1E
1F
0W
0U
0r
0l
1j
0\
1[
1?
0@
1B
0C
0=
0q
1c
0/
05
14
02
11
0X
0m
1k
0J
1L
1o
1p
#1540000
0"
0E
0F
#1545000
1"
1E
1F
0Y
1r
0n
1l
1\
0Z
0>
1@
1C
0D
1=
0g
1q
0_
1/
06
15
12
00
0k
0i
0e
1J
0N
#1550000
0"
0E
0F
#1555000
1"
1E
1F
#1560000
0"
0E
0F
#1565000
1"
1E
1F
#1570000
0"
0E
0F
#1575000
1"
1E
1F
#1580000
0"
0E
0F
#1585000
1"
1E
1F
#1590000
0"
0E
0F
#1595000
1"
1E
1F
#1600000
1(
1&
1$
0'
0"
1b
1I
1M
0O
0E
0F
1m
1i
0P
#1605000
1"
1E
1F
0S
#1610000
0"
0E
0F
#1615000
1"
1E
1F
#1620000
1+
0"
1H
0E
0F
0q
1N
0L
#1625000
1"
1E
1F
0r
0[
1Z
1>
0?
0=
0/
01
10
#1630000
0"
0E
0F
#1635000
1"
1E
1F
#1640000
1%
1#
0&
0+
0"
1K
1^
0I
0H
0E
0F
1k
1e
0m
#1645000
1"
1E
1F
#1650000
0"
0E
0F
#1655000
1"
1E
1F
#1660000
1,
0"
1f
0E
0F
1g
#1665000
1"
1E
1F
#1670000
0"
0E
0F
#1675000
1"
1E
1F
#1680000
0$
0%
0#
0,
0"
0M
0K
0^
0f
0E
0F
0g
0i
0k
0e
#1685000
1"
1E
1F
#1690000
0"
0E
0F
#1695000
1"
1E
1F
#1700000
1'
0"
1O
0E
0F
1X
1T
1P
#1705000
1"
1E
1F
1Y
1U
1S
1g
1m
1k
1i
1V
0T
#1710000
0"
0E
0F
#1715000
1"
1E
1F
1W
0U
1r
1n
0h
0\
1[
0Z
0>
1?
0@
0A
1D
1=
1q
1_
1/
16
03
02
11
00
1T
0i
0J
1L
0N
1e
#1720000
0"
0E
0F
#1725000
1"
1E
1F
1U
0j
1h
1\
0[
1Z
1>
0?
1@
1A
0B
04
13
12
01
10
0V
0T
0k
1i
1J
0L
1N
#1730000
0"
0E
0F
#1735000
1"
1E
1F
0W
0U
0l
1j
0\
1[
1?
0@
1B
0C
05
14
02
11
0X
0m
1k
0J
1L
#1740000
0"
0E
0F
#1745000
1"
1E
1F
0Y
0n
1l
1\
1@
1C
0D
0g
0_
06
15
12
0k
0i
0e
1J
#1750000
0"
0E
0F
#1755000
1"
1E
1F
#1760000
0"
0E
0F
#1765000
1"
1E
1F
#1770000
0"
0E
0F
#1775000
1"
1E
1F
#1780000
0"
0E
0F
#1785000
1"
1E
1F
#1790000
0"
0E
0F
#1795000
1"
1E
1F
#1800000
1*
0)
0(
1&
1$
0'
0"
1`
0a
0b
1I
1M
0O
0E
0F
0o
0c
1m
1i
0P
1o
0p
1p
#1805000
1"
1E
1F
0S
#1810000
0"
0E
0F
#1815000
1"
1E
1F
#1820000
1+
0"
1H
0E
0F
0q
0L
#1825000
1"
1E
1F
0r
0[
0?
0=
0/
01
#1830000
0"
0E
0F
#1835000
1"
1E
1F
#1840000
1%
1#
0&
0+
0"
1K
1^
0I
0H
0E
0F
1k
1e
0m
#1845000
1"
1E
1F
#1850000
0"
0E
0F
#1855000
1"
1E
1F
#1860000
1,
0"
1f
0E
0F
1g
#1865000
1"
1E
1F
#1870000
0"
0E
0F
#1875000
1"
1E
1F
#1880000
0$
0%
0#
0,
0"
0M
0K
0^
0f
0E
0F
0g
0i
0k
0e
#1885000
1"
1E
1F
#1890000
0"
0E
0F
#1895000
1"
1E
1F
#1900000
1'
0"
1O
0E
0F
1X
1T
1P
#1905000
1"
1E
1F
1Y
1U
1S
1g
1m
1k
1i
1V
0T
#1910000
0"
0E
0F
#1915000
1"
1E
1F
1W
0U
1r
1n
0h
0\
1[
0Z
0>
1?
0@
0A
1D
1=
1q
1_
1/
16
03
02
11
00
1T
0i
0J
1L
0N
1e
#1920000
0"
0E
0F
#1925000
1"
1E
1F
1U
0j
1h
1\
0[
1Z
1>
0?
1@
1A
0B
1c
04
13
12
01
10
0V
0T
0k
1i
1J
0L
1N
0o
0p
#1930000
0"
0E
0F
#1935000
1"
1E
1F
0W
0U
0r
0l
1j
0\
1[
1?
0@
1B
0C
0=
0q
0c
0/
05
14
02
11
0X
0m
1k
0J
1L
1o
1p
#1940000
0"
0E
0F
#1945000
1"
1E
1F
0Y
1r
0n
1l
1\
0Z
0>
1@
1C
0D
1=
0g
1q
0_
1/
06
15
12
00
0k
0i
0e
1J
0N
#1950000
0"
0E
0F
#1955000
1"
1E
1F
#1960000
0"
0E
0F
#1965000
1"
1E
1F
#1970000
0"
0E
0F
#1975000
1"
1E
1F
#1980000
0"
0E
0F
#1985000
1"
1E
1F
#1990000
0"
0E
0F
#1995000
1"
1E
1F
#2000000
1(
1&
1$
0'
0"
1b
1I
1M
0O
0E
0F
1c
1m
1i
0P
0o
0p
#2005000
1"
1E
1F
0S
#2010000
0"
0E
0F
#2015000
1"
1E
1F
#2020000
1+
0"
1H
0E
0F
0q
1N
0L
#2025000
1"
1E
1F
0r
0[
1Z
1>
0?
0=
0/
01
10
#2030000
0"
0E
0F
#2035000
1"
1E
1F
#2040000
1%
1#
0&
0+
0"
1K
1^
0I
0H
0E
0F
1k
1e
0m
#2045000
1"
1E
1F
#2050000
0"
0E
0F
#2055000
1"
1E
1F
#2060000
1,
0"
1f
0E
0F
1g
#2065000
1"
1E
1F
#2070000
0"
0E
0F
#2075000
1"
1E
1F
#2080000
0$
0%
0#
0,
0"
0M
0K
0^
0f
0E
0F
0g
0i
0k
0e
#2085000
1"
1E
1F
#2090000
0"
0E
0F
#2095000
1"
1E
1F
#2100000
0"
0E
0F
#2105000
1"
1E
1F
#2110000
1'
0"
1O
0E
0F
1X
1T
1P
#2115000
1"
1E
1F
1Y
1U
1S
1g
1m
1k
1i
1V
0T
#2120000
0"
0E
0F
#2125000
1"
1E
1F
1W
0U
1n
0h
0\
1[
0Z
0>
1?
0@
0A
1D
1_
16
03
02
11
00
1T
0i
0J
1L
0N
1e
#2130000
0"
0E
0F
#2135000
1"
1E
1F
1U
0j
1h
1\
0[
0?
1@
1A
0B
04
13
12
01
0V
0T
0k
1i
1J
0L
#2140000
0"
0E
0F
#2145000
1"
1E
1F
0W
0U
0l
1j
0\
0@
1B
0C
05
14
02
0X
0m
1k
0J
#2150000
0"
0E
0F
#2155000
1"
1E
1F
0Y
0n
1l
1C
0D
0g
0c
0_
06
15
0k
0i
0e
1o
1p
#2160000
0"
0E
0F
#2165000
1"
1E
1F
#2170000
0"
0E
0F
#2175000
1"
1E
1F
#2180000
0"
0E
0F
#2185000
1"
1E
1F
#2190000
0"
0E
0F
#2195000
1"
1E
1F
#2200000
1)
0(
1&
1$
0'
0"
1a
0b
1I
1M
0O
0E
0F
1m
1i
0P
#2205000
1"
1E
1F
0S
#2210000
0"
0E
0F
#2215000
1"
1E
1F
#2220000
1+
0"
1H
0E
0F
1N
1J
#2225000
1"
1E
1F
1\
1Z
1>
1@
1c
12
10
0o
0p
#2230000
0"
0E
0F
#2235000
1"
1E
1F
#2240000
1%
1#
0&
0+
0"
1K
1^
0I
0H
0E
0F
1k
1e
0m
#2245000
1"
1E
1F
#2250000
0"
0E
0F
#2255000
1"
1E
1F
#2260000
1,
0"
1f
0E
0F
1g
#2265000
1"
1E
1F
#2270000
0"
0E
0F
#2275000
1"
1E
1F
#2280000
0$
0%
0#
0,
0"
0M
0K
0^
0f
0E
0F
0g
0i
0k
0e
#2285000
1"
1E
1F
#2290000
0"
0E
0F
#2295000
1"
1E
1F
#2300000
1'
0"
1O
0E
0F
1X
1T
1P
#2305000
1"
1E
1F
1Y
1U
1S
1g
1m
1k
1i
1V
0T
#2310000
0"
0E
0F
#2315000
1"
1E
1F
1W
0U
1n
0h
0\
1[
0Z
0>
1?
0@
0A
1D
1_
16
03
02
11
00
1T
0i
0J
1L
0N
1e
#2320000
0"
0E
0F
#2325000
1"
1E
1F
1U
0j
1h
1\
0[
0?
1@
1A
0B
0c
04
13
12
01
0V
0T
0k
1i
1J
0L
1o
1p
#2330000
0"
0E
0F
#2335000
1"
1E
1F
0W
0U
1r
0l
1j
0\
0@
1B
0C
1=
1q
1c
1/
05
14
02
0X
0m
1k
0J
0o
0p
#2340000
0"
0E
0F
#2345000
1"
1E
1F
0Y
0r
0n
1l
1Z
1>
1C
0D
0=
0g
0q
0c
0_
0/
06
15
10
0k
0i
0e
1N
1o
1p
#2350000
0"
0E
0F
#2355000
1"
1E
1F
#2360000
0"
0E
0F
#2365000
1"
1E
1F
#2370000
0"
0E
0F
#2375000
1"
1E
1F
#2380000
0"
0E
0F
#2385000
1"
1E
1F
#2390000
0"
0E
0F
#2395000
1"
1E
1F
#2400000
1(
1&
1$
0'
0"
1b
1I
1M
0O
0E
0F
1c
1m
1i
0P
0o
0p
#2405000
1"
1E
1F
0S
#2410000
0"
0E
0F
#2415000
1"
1E
1F
#2420000
1+
0"
1H
0E
0F
1J
#2425000
1"
1E
1F
1\
1@
12
#2430000
0"
0E
0F
#2435000
1"
1E
1F
#2440000
1%
1#
0&
0+
0"
1K
1^
0I
0H
0E
0F
1k
1e
0m
#2445000
1"
1E
1F
#2450000
0"
0E
0F
#2455000
1"
1E
1F
#2460000
1,
0"
1f
0E
0F
1g
#2465000
1"
1E
1F
#2470000
0"
0E
0F
#2475000
1"
1E
1F
#2480000
0$
0%
0#
0,
0"
0M
0K
0^
0f
0E
0F
0g
0i
0k
0e
#2485000
1"
1E
1F
#2490000
0"
0E
0F
#2495000
1"
1E
1F
#2500000
1'
0"
1O
0E
0F
1X
1T
1P
#2505000
1"
1E
1F
1Y
1U
1S
1g
1m
1k
1i
1V
0T
#2510000
0"
0E
0F
#2515000
1"
1E
1F
1W
0U
1n
0h
0\
1[
0Z
0>
1?
0@
0A
1D
1_
16
03
02
11
00
1T
0i
0J
1L
0N
1e
#2520000
0"
0E
0F
#2525000
1"
1E
1F
1U
0j
1h
1\
0[
0?
1@
1A
0B
04
13
12
01
0V
0T
0k
1i
1J
0L
#2530000
0"
0E
0F
#2535000
1"
1E
1F
0W
0U
0l
1j
0\
0@
1B
0C
05
14
02
0X
0m
1k
0J
#2540000
0"
0E
0F
#2545000
1"
1E
1F
0Y
0n
1l
1C
0D
0g
0_
06
15
0k
0i
0e
#2550000
0"
0E
0F
#2555000
1"
1E
1F
#2560000
0"
0E
0F
#2565000
1"
1E
1F
#2570000
0"
0E
0F
#2575000
1"
1E
1F
#2580000
0"
0E
0F
#2585000
1"
1E
1F
#2590000
0"
0E
0F
#2595000
1"
1E
1F
#2599000
0*
0)
0(
0'
0`
0a
0b
0O
1o
0c
0P
0o
1p
0p
#2600000
1&
1$
0"
1*
1)
1I
1M
0E
1`
1a
0F
1o
1m
1i
1p
#2605000
1"
1E
1F
0S
#2610000
0"
0E
0F
#2615000
1"
1E
1F
#2620000
1+
0"
1H
0E
0F
1N
1J
#2625000
1"
1E
1F
1\
1Z
1>
1@
1c
12
10
0o
0p
#2630000
0"
0E
0F
#2635000
1"
1E
1F
#2640000
1%
1#
0&
0+
0"
1K
1^
0I
0H
0E
0F
1k
1e
0m
#2645000
1"
1E
1F
#2650000
0"
0E
0F
#2655000
1"
1E
1F
#2660000
1,
0"
1f
0E
0F
1g
#2665000
1"
1E
1F
#2670000
0"
0E
0F
#2675000
1"
1E
1F
#2680000
0$
0%
0#
0,
0"
0M
0K
0^
0f
0E
0F
0g
0i
0k
0e
#2685000
1"
1E
1F
#2690000
0"
0E
0F
#2695000
1"
1E
1F
#2700000
1'
0"
1O
0E
0F
1X
1T
1P
#2705000
1"
1E
1F
1Y
1U
1S
1g
1m
1k
1i
1V
0T
#2710000
0'
0"
0O
0E
0F
#2715000
1"
1E
1F
1W
0U
1n
0h
0\
1[
0Z
0>
1?
0@
0A
1D
1_
16
03
02
11
00
1T
0i
0J
1L
0N
1e
#2720000
0"
0E
0F
