Lab+Final_Project/Lab1/simulation/qsim/Lab1test.msim.vcd
$comment
	File created using the following command:
		vcd file Lab1test.msim.vcd -direction
$end
$date
	Tue Sep 15 21:21:02 2020
$end
$version
	ModelSim Version 10.5b
$end
$timescale
	1ps
$end

$scope module Lab1test_vlg_vec_tst $end
$var reg 1 ! A $end
$var reg 1 " B $end
$var reg 16 # BUS1 [15:0] $end
$var reg 16 $ BUS2 [15:0] $end
$var reg 1 % C $end
$var wire 1 & Z $end

$scope module i1 $end
$var wire 1 ' gnd $end
$var wire 1 ( vcc $end
$var wire 1 ) unknown $end
$var tri1 1 * devclrn $end
$var tri1 1 + devpor $end
$var tri1 1 , devoe $end
$var wire 1 - BUS1[15]~input_o $end
$var wire 1 . BUS1[14]~input_o $end
$var wire 1 / BUS1[13]~input_o $end
$var wire 1 0 BUS1[12]~input_o $end
$var wire 1 1 BUS1[11]~input_o $end
$var wire 1 2 BUS1[10]~input_o $end
$var wire 1 3 BUS1[9]~input_o $end
$var wire 1 4 BUS1[8]~input_o $end
$var wire 1 5 BUS2[15]~input_o $end
$var wire 1 6 BUS2[14]~input_o $end
$var wire 1 7 BUS2[13]~input_o $end
$var wire 1 8 BUS2[12]~input_o $end
$var wire 1 9 BUS2[11]~input_o $end
$var wire 1 : BUS2[10]~input_o $end
$var wire 1 ; BUS2[9]~input_o $end
$var wire 1 < BUS2[8]~input_o $end
$var wire 1 = Z~output_o $end
$var wire 1 > B~input_o $end
$var wire 1 ? A~input_o $end
$var wire 1 @ C~input_o $end
$var wire 1 A BUS2[7]~input_o $end
$var wire 1 B BUS1[7]~input_o $end
$var wire 1 C BUS1[6]~input_o $end
$var wire 1 D BUS2[6]~input_o $end
$var wire 1 E BUS1[5]~input_o $end
$var wire 1 F BUS2[5]~input_o $end
$var wire 1 G BUS1[4]~input_o $end
$var wire 1 H BUS2[4]~input_o $end
$var wire 1 I BUS2[3]~input_o $end
$var wire 1 J BUS1[3]~input_o $end
$var wire 1 K BUS1[2]~input_o $end
$var wire 1 L BUS2[2]~input_o $end
$var wire 1 M BUS1[1]~input_o $end
$var wire 1 N BUS2[1]~input_o $end
$var wire 1 O BUS2[0]~input_o $end
$var wire 1 P BUS1[0]~input_o $end
$var wire 1 Q inst4|inst3|cout~0_combout $end
$var wire 1 R inst4|inst3|cout~1_combout $end
$var wire 1 S inst4|inst5|cout~0_combout $end
$var wire 1 T inst4|inst5|cout~1_combout $end
$var wire 1 U inst4|inst7|cout~0_combout $end
$var wire 1 V inst4|inst7|cout~1_combout $end
$var wire 1 W inst4|inst9|cout~0_combout $end
$var wire 1 X inst4|inst9|cout~1_combout $end
$var wire 1 Y inst8|4~0_combout $end
$upscope $end
$upscope $end
$enddefinitions $end
#0
$dumpvars
1!
0"
b1111111111111111 #
b0 $
1%
x&
0'
1(
x)
1*
1+
1,
1-
1.
1/
10
11
12
13
14
05
06
07
08
09
0:
0;
0<
x=
0>
1?
1@
0A
1B
1C
0D
1E
0F
1G
0H
0I
1J
1K
0L
1M
0N
0O
1P
xQ
xR
xS
xT
xU
xV
xW
xX
xY
$end
#3325
1Y
#3597
1Q
#4804
1R
#5166
1S
#5527
1T
#5889
1U
#6618
1=
1&
#6739
1V
#7610
1W
#8142
1X
#50000
1"
#50710
1>
#54054
0Q
#55238
0R
#55608
0S
#55977
0T
#56346
0U
#57177
0V
#58035
0W
#58558
0X
#100000
0"
#100816
0>
#104413
1Q
#105620
1R
#105982
1S
#106343
1T
#106705
1U
#107555
1V
#108426
1W
#108958
1X
#150000
1"
#150710
1>
#154054
0Q
#155238
0R
#155608
0S
#155977
0T
#156346
0U
#157177
0V
#158035
0W
#158558
0X
#200000
0"
#200816
0>
#204413
1Q
#205620
1R
#205982
1S
#206343
1T
#206705
1U
#207555
1V
#208426
1W
#208958
1X
#250000
1"
#250710
1>
#254054
0Q
#255238
0R
#255608
0S
#255977
0T
#256346
0U
#257177
0V
#258035
0W
#258558
0X
#300000
0"
#300816
0>
#304413
1Q
#305620
1R
#305982
1S
#306343
1T
#306705
1U
#307555
1V
#308426
1W
#308958
1X
#350000
1"
#350710
1>
#354054
0Q
#355238
0R
#355608
0S
#355977
0T
#356346
0U
#357177
0V
#358035
0W
#358558
0X
#400000
0"
#400816
0>
#404413
1Q
#405620
1R
#405982
1S
#406343
1T
#406705
1U
#407555
1V
#408426
1W
#408958
1X
#450000
1"
#450710
1>
#454054
0Q
#455238
0R
#455608
0S
#455977
0T
#456346
0U
#457177
0V
#458035
0W
#458558
0X
#500000
0"
#500816
0>
#504413
1Q
#505620
1R
#505982
1S
#506343
1T
#506705
1U
#507555
1V
#508426
1W
#508958
1X
#550000
1"
#550710
1>
#554054
0Q
#555238
0R
#555608
0S
#555977
0T
#556346
0U
#557177
0V
#558035
0W
#558558
0X
#600000
0"
#600816
0>
#604413
1Q
#605620
1R
#605982
1S
#606343
1T
#606705
1U
#607555
1V
#608426
1W
#608958
1X
#650000
1"
#650710
1>
#654054
0Q
#655238
0R
#655608
0S
#655977
0T
#656346
0U
#657177
0V
#658035
0W
#658558
0X
#700000
0"
#700816
0>
#704413
1Q
#705620
1R
#705982
1S
#706343
1T
#706705
1U
#707555
1V
#708426
1W
#708958
1X
#750000
1"
#750710
1>
#754054
0Q
#755238
0R
#755608
0S
#755977
0T
#756346
0U
#757177
0V
#758035
0W
#758558
0X
#800000
0"
#800816
0>
#804413
1Q
#805620
1R
#805982
1S
#806343
1T
#806705
1U
#807555
1V
#808426
1W
#808958
1X
#850000
1"
#850710
1>
#854054
0Q
#855238
0R
#855608
0S
#855977
0T
#856346
0U
#857177
0V
#858035
0W
#858558
0X
#900000
0"
#900816
0>
#904413
1Q
#905620
1R
#905982
1S
#906343
1T
#906705
1U
#907555
1V
#908426
1W
#908958
1X
#950000
1"
#950710
1>
#954054
0Q
#955238
0R
#955608
0S
#955977
0T
#956346
0U
#957177
0V
#958035
0W
#958558
0X
